<?xml version="1.0"?>
<robot name="camera" xmlns:xacro="http://wiki.ros.org/xacro">
<gazebo reference="camera_link">
  <sensor type="multicamera" name="stereo_camera">
    <update_rate>30.0</update_rate>
    <camera name="left">
      <horizontal_fov>1.3962634</horizontal_fov>
      <image>
        <width>800</width>
        <height>800</height>
        <format>R8G8B8</format>
      </image>
      <clip>
        <near>0.02</near>
        <far>300</far>
      </clip>
      <noise>
        <type>gaussian</type>
        <mean>0.0</mean>
        <stddev>0.007</stddev>
      </noise>
    </camera>
    <camera name="right">
      <pose>0 -0.07 0 0 0 0</pose>
      <horizontal_fov>1.3962634</horizontal_fov>
      <image>
        <width>800</width>
        <height>800</height>
        <format>R8G8B8</format>
      </image>
      <clip>
        <near>0.02</near>
        <far>300</far>
      </clip>
      <noise>
        <type>gaussian</type>
        <mean>0.0</mean>
        <stddev>0.007</stddev>
      </noise>
    </camera>
    <plugin name="stereo_camera_controller" filename="libgazebo_ros_multicamera.so">
      <alwaysOn>true</alwaysOn>
      <updateRate>0.0</updateRate>
      <cameraName>multisense_sl/camera</cameraName>
      <imageTopicName>image_raw</imageTopicName>
      <cameraInfoTopicName>camera_info</cameraInfoTopicName>
      <frameName>left_camera_optical_frame</frameName>
      <!--<rightFrameName>right_camera_optical_frame</rightFrameName>-->
      <hackBaseline>0.07</hackBaseline>
      <distortionK1>0.0</distortionK1>
      <distortionK2>0.0</distortionK2>
      <distortionK3>0.0</distortionK3>
      <distortionT1>0.0</distortionT1>
      <distortionT2>0.0</distortionT2>
    </plugin>
  </sensor>

    <turnGravityOff>true</turnGravityOff>
    <material>Gazebo/Blue</material>
</gazebo>

          <!-- Camera -->
          <link name="camera_link">
            <visual>
              <origin xyz="0 0 0" rpy="0 0 0"/>
              <geometry>
                  <box size="0.01 0.01 0.01"/>
              </geometry>
              <material name="red"/>
            </visual>
            <inertial>
              <mass value="1e-5" />
              <origin xyz="0 0 0" rpy="0 0 0"/>
              <inertia ixx="1e-6" ixy="0" ixz="0" iyy="1e-6" iyz="0" izz="1e-6" />
            </inertial>
          </link>

</robot>
