<?xml version="1.0"?>
<robot xmlns:xacro="http://wiki.ros.org/xacro">
  <xacro:macro name="motoman_mh5lf" params="prefix">
    <link name="${prefix}base_link">
      <visual>
        <origin xyz="0.000000 0.000000 0.000000" rpy="0.000000 0.000000 -1.570796"/>
        <geometry>
          <mesh filename="package://motoman_mh5lf_support/meshes/visual/base_link.dae" />
        </geometry>
        <material name="">
          <color rgba="0 1 0 1" />
        </material>
      </visual>
      <collision>
        <origin xyz="0.000000 0.000000 0.000000" rpy="0.000000 0.000000 -1.570796"/>
        <geometry>
          <mesh filename="package://motoman_mh5lf_support/meshes/collision/base_link.stl" />
        </geometry>
      </collision>
      <inertial>
        <mass value="20.000000"/>
        <inertia
          ixx="0.001000" ixy="0.000000" ixz="0.000000"
          iyy="0.001000" iyz="0.000000" izz="0.001000"/>
      </inertial> 
    </link>
    <link name="${prefix}link_1">
      <visual>
        <origin xyz="0.000000 0.000000 0.000000" rpy="0.000000 0.000000 -1.570796"/>
        <geometry>
          <mesh filename="package://motoman_mh5lf_support/meshes/visual/link_1.dae" />
        </geometry>
        <material name="">
          <color rgba="0 1 0 1" />
        </material>
      </visual>
      <collision>
        <origin xyz="0.000000 0.000000 0.000000" rpy="0.000000 0.000000 -1.570796"/>
        <geometry>
          <mesh filename="package://motoman_mh5lf_support/meshes/collision/link_1.stl" />
        </geometry>
      </collision>
      <inertial>
        <mass value="16.000000"/>
        <inertia
          ixx="0.001000" ixy="0.000000" ixz="0.000000"
          iyy="0.001000" iyz="0.000000" izz="0.001000"/>
      </inertial> 
    </link>
    <link name="${prefix}link_2">
      <visual>
        <origin xyz="-0.088000 0.000000 -0.330000" rpy="0.000000 0.000000 -1.570796"/>
        <geometry>
          <mesh filename="package://motoman_mh5lf_support/meshes/visual/link_2.dae" />
        </geometry>
        <material name="">
          <color rgba="0 1 0 1" />
        </material>
      </visual>
      <collision>
        <origin xyz="-0.088000 0.000000 -0.330000" rpy="0.000000 0.000000 -1.570796"/>
        <geometry>
          <mesh filename="package://motoman_mh5lf_support/meshes/collision/link_2.stl" />
        </geometry>
      </collision>
      <inertial>
        <mass value="6.000000"/>
        <inertia
          ixx="0.001000" ixy="0.000000" ixz="0.000000"
          iyy="0.001000" iyz="0.000000" izz="0.001000"/>
      </inertial> 
    </link>
    <link name="${prefix}link_3">
      <visual>
        <origin xyz="-0.088000 0.000000 -0.730000" rpy="0.000000 0.000000 -1.570796"/>
        <geometry>
          <mesh filename="package://motoman_mh5lf_support/meshes/visual/link_3.dae" />
        </geometry>
        <material name="">
          <color rgba="0 1 0 1" />
        </material>
      </visual>
      <collision>
        <origin xyz="-0.088000 0.000000 -0.730000" rpy="0.000000 0.000000 -1.570796"/>
        <geometry>
          <mesh filename="package://motoman_mh5lf_support/meshes/collision/link_3.stl" />
        </geometry>
      </collision>
      <inertial>
        <mass value="1.000000"/>
        <inertia
          ixx="0.001000" ixy="0.000000" ixz="0.000000"
          iyy="0.001000" iyz="0.000000" izz="0.001000"/>
      </inertial> 
    </link>
    <link name="${prefix}link_4">
      <visual>
        <origin xyz="-0.088000 0.000000 -0.770000" rpy="0.000000 0.000000 -1.570796"/>
        <geometry>
          <mesh filename="package://motoman_mh5lf_support/meshes/visual/link_4.dae" />
        </geometry>
        <material name="">
          <color rgba="0 1 0 1" />
        </material>
      </visual>
      <collision>
        <origin xyz="-0.088000 0.000000 -0.770000" rpy="0.000000 0.000000 -1.570796"/>
        <geometry>
          <mesh filename="package://motoman_mh5lf_support/meshes/collision/link_4.stl" />
        </geometry>
      </collision>
      <inertial>
        <mass value="3.200000"/>
        <inertia
          ixx="0.001000" ixy="0.000000" ixz="0.000000"
          iyy="0.001000" iyz="0.000000" izz="0.001000"/>
      </inertial> 
    </link>
    <link name="${prefix}link_5">
      <visual>
        <origin xyz="-0.493000 0.000000 -0.770000" rpy="0.000000 0.000000 -1.570796"/>
        <geometry>
          <mesh filename="package://motoman_mh5lf_support/meshes/visual/link_5.dae" />
        </geometry>
        <material name="">
          <color rgba="0 1 0 1" />
        </material>
      </visual>
      <collision>
        <origin xyz="-0.493000 0.000000 -0.770000" rpy="0.000000 0.000000 -1.570796"/>
        <geometry>
          <mesh filename="package://motoman_mh5lf_support/meshes/collision/link_5.stl" />
        </geometry>
      </collision>
      <inertial>
        <mass value="0.600000"/>
        <inertia
          ixx="0.001000" ixy="0.000000" ixz="0.000000"
          iyy="0.001000" iyz="0.000000" izz="0.001000"/>
      </inertial> 
    </link>
    <link name="${prefix}link_6">
      <visual>
        <origin xyz="-0.573000 0.000000 -0.770000" rpy="0.000000 0.000000 -1.570796"/>
        <geometry>
          <mesh filename="package://motoman_mh5lf_support/meshes/visual/link_6.dae" />
        </geometry>
        <material name="">
          <color rgba="0 1 0 1" />
        </material>
      </visual>
      <collision>
        <origin xyz="-0.573000 0.000000 -0.770000" rpy="0.000000 0.000000 -1.570796"/>
        <geometry>
          <mesh filename="package://motoman_mh5lf_support/meshes/collision/link_6.stl" />
        </geometry>
      </collision>
      <inertial>
        <mass value="0.200000"/>
        <inertia
          ixx="0.001000" ixy="0.000000" ixz="0.000000"
          iyy="0.001000" iyz="0.000000" izz="0.001000"/>
      </inertial> 
    </link>
        <!-- This frame corresponds to the $FLANGE coordinate system in controllers -->
        <link name="${prefix}tool0"/>

        <joint name="${prefix}joint_1" type="revolute">
            <origin xyz="0.000000 0.000000 0.000000" rpy="0 0.000000 0"/>
            <parent link="${prefix}base_link"/>
            <child link="${prefix}link_1"/>
            <axis xyz="0 0 1"/>
            <limit effort="100.000000" lower="-2.967060" upper="2.967060" velocity="4.712389"/>
            <dynamics damping="0.0" friction="0.1"/>
        </joint>
        <joint name="${prefix}joint_2" type="revolute">
            <origin xyz="0.088000 0.000000 0.330000" rpy="0 0.000000 0"/>
            <parent link="${prefix}link_1"/>
            <child link="${prefix}link_2"/>
            <axis xyz="0 1 0"/>
            <limit effort="100.000000" lower="-1.134464" upper="2.617994" velocity="4.886922"/>
            <dynamics damping="0.0" friction="0.1"/>
        </joint>
        <joint name="${prefix}joint_3" type="revolute">
            <origin xyz="0.000000 0.000000 0.400000" rpy="0 -1.570796 0"/>
            <parent link="${prefix}link_2"/>
            <child link="${prefix}link_3"/>
            <axis xyz="0 -1 0"/>
            <limit effort="100.000000" lower="-2.705260" upper="2.373648" velocity="5.235988"/>
            <dynamics damping="0.0" friction="0.1"/>
        </joint>
        <joint name="${prefix}joint_4" type="revolute">
            <origin xyz="0.000000 0.000000 0.040000" rpy="0 0.000000 0"/>
            <parent link="${prefix}link_3"/>
            <child link="${prefix}link_4"/>
            <axis xyz="-1 0 0"/>
            <limit effort="100.000000" lower="-3.316126" upper="3.316126" velocity="7.853982"/>
            <dynamics damping="0.0" friction="0.1"/>
        </joint>
        <joint name="${prefix}joint_5" type="revolute">
            <origin xyz="0.405000 0.000000 0.000000" rpy="0 0.000000 0"/>
            <parent link="${prefix}link_4"/>
            <child link="${prefix}link_5"/>
            <axis xyz="0 -1 0"/>
            <limit effort="100.000000" lower="-2.356194" upper="2.356194" velocity="7.853982"/>
            <dynamics damping="0.0" friction="0.1"/>
        </joint>
        <joint name="${prefix}joint_6" type="revolute">
            <origin xyz="0.080000 0.000000 0.000000" rpy="0 0.000000 0"/>
            <parent link="${prefix}link_5"/>
            <child link="${prefix}link_6"/>
            <axis xyz="-1 0 0"/>
            <limit effort="100.000000" lower="-6.283185" upper="6.283185" velocity="12.566371"/>
            <dynamics damping="0.0" friction="0.1"/>
        </joint>
        <joint name="${prefix}joint_6-tool0" type="fixed">
            <parent link="${prefix}link_6"/>
            <child link="${prefix}tool0"/>
            <origin xyz="0 0 0" rpy="0 1.570796 0"/>
        </joint> 

    </xacro:macro>
</robot>

