<?xml version="1.0"?>
<robot name="motoman_mh5lf" xmlns:xacro="http://wiki.ros.org/xacro">

    <!-- ROS control plugin -->
    <gazebo>
       <plugin name="gazebo_ros_control" filename="libgazebo_ros_control.so">
            <!--        <robotNamespace>/mh5lf</robotNamespace> -->
            <robotSimType>gazebo_ros_control/DefaultRobotHWSim</robotSimType>
        </plugin>
    </gazebo>

    <!-- Import all Gazebo-customization elements, including Gazebo colors -->
    <xacro:include filename="$(find motoman_mh5lf_support)/urdf/mh5lf_gazebo.xacro" />
    <xacro:include filename="$(find motoman_mh5lf_support)/urdf/mh5lf_macro.xacro" />
    <xacro:include filename="$(find motoman_mh5lf_support)/urdf/mh5lf_transmission.xacro" />

    <xacro:motoman_mh5lf prefix=""/>
    <xacro:motoman_mh5lf_transmission prefix=""/>
    <xacro:motoman_mh5lf_gazebo prefix=""/>

    <link name="world" />

    <joint name="world_joint" type="fixed">
        <parent link="world" />
        <child link = "base_link" />
            <origin xyz="0.0 0.0 0.0" rpy="0.0 0.0 0.0" />

    </joint>
</robot>

