<?xml version="1.0" ?>
<!-- =================================================================================== -->
<!-- |    This document was autogenerated by xacro from ../urdf/kr210r2700.xacro       | -->
<!-- |    EDITING THIS FILE BY HAND IS NOT RECOMMENDED                                 | -->
<!-- =================================================================================== -->
<robot name="kuka_kr210r2700" xmlns:xacro="http://wiki.ros.org/xacro">
  <!-- ROS control plugin -->
  <gazebo>
    <plugin filename="libgazebo_ros_control.so" name="gazebo_ros_control">
      <!--        <robotNamespace>/kr210r2700</robotNamespace> -->
      <robotSimType>gazebo_ros_control/DefaultRobotHWSim</robotSimType>
    </plugin>
  </gazebo>
  <link name="base_link">
    <visual>
      <origin rpy="0.000000 0.000000 0.000000" xyz="0.000000 0.000000 0.035000"/>
      <geometry>
        <mesh filename="package://kuka_kr210r2700_support/meshes/visual/base_link.dae"/>
      </geometry>
      <material name="">
        <color rgba="0 1 0 1"/>
      </material>
    </visual>
    <collision>
      <origin rpy="0 0 0" xyz="0.000000 0.000000 0.035000"/>
      <geometry>
        <mesh filename="package://kuka_kr210r2700_support/meshes/collision/base_link.stl"/>
      </geometry>
    </collision>
    <inertial>
      <mass value="160.000000"/>
      <inertia ixx="3.000000" ixy="0.000000" ixz="0.000000" iyy="8.000000" iyz="0.000000" izz="6.000000"/>
    </inertial>
  </link>
  <link name="link_1">
    <visual>
      <origin rpy="0.000000 0.000000 0.000000" xyz="0.000000 0.000000 0.000000"/>
      <geometry>
        <mesh filename="package://kuka_kr210r2700_support/meshes/visual/link_1.dae"/>
      </geometry>
      <material name="">
        <color rgba="0 1 0 1"/>
      </material>
    </visual>
    <collision>
      <origin rpy="0 0 0" xyz="0.000000 0.000000 0.000000"/>
      <geometry>
        <mesh filename="package://kuka_kr210r2700_support/meshes/collision/link_1.stl"/>
      </geometry>
    </collision>
    <inertial>
      <mass value="352.000000"/>
      <inertia ixx="5.000000" ixy="0.000000" ixz="0.000000" iyy="16.000000" iyz="0.000000" izz="16.000000"/>
    </inertial>
  </link>
  <link name="link_2">
    <visual>
      <origin rpy="0.000000 0.000000 0.000000" xyz="-0.350000 0.000000 -0.675000"/>
      <geometry>
        <mesh filename="package://kuka_kr210r2700_support/meshes/visual/link_2.dae"/>
      </geometry>
      <material name="">
        <color rgba="0 1 0 1"/>
      </material>
    </visual>
    <collision>
      <origin rpy="0 0 0" xyz="-0.350000 0.000000 -0.675000"/>
      <geometry>
        <mesh filename="package://kuka_kr210r2700_support/meshes/collision/link_2.stl"/>
      </geometry>
    </collision>
    <inertial>
      <mass value="165.000000"/>
      <inertia ixx="24.000000" ixy="0.000000" ixz="0.000000" iyy="2.000000" iyz="0.000000" izz="24.000000"/>
    </inertial>
  </link>
  <link name="link_3">
    <visual>
      <origin rpy="0.000000 0.000000 0.000000" xyz="-0.350000 0.000000 -1.825000"/>
      <geometry>
        <mesh filename="package://kuka_kr210r2700_support/meshes/visual/link_3.dae"/>
      </geometry>
      <material name="">
        <color rgba="0 1 0 1"/>
      </material>
    </visual>
    <collision>
      <origin rpy="0 0 0" xyz="-0.350000 0.000000 -1.825000"/>
      <geometry>
        <mesh filename="package://kuka_kr210r2700_support/meshes/collision/link_3.stl"/>
      </geometry>
    </collision>
    <inertial>
      <mass value="391.000000"/>
      <inertia ixx="1.000000" ixy="0.000000" ixz="0.000000" iyy="11.000000" iyz="0.000000" izz="11.000000"/>
    </inertial>
  </link>
  <link name="link_4">
    <visual>
      <origin rpy="0.000000 0.000000 0.000000" xyz="-0.350000 0.000000 -1.784000"/>
      <geometry>
        <mesh filename="package://kuka_kr210r2700_support/meshes/visual/link_4.dae"/>
      </geometry>
      <material name="">
        <color rgba="0 1 0 1"/>
      </material>
    </visual>
    <collision>
      <origin rpy="0 0 0" xyz="-0.350000 0.000000 -1.784000"/>
      <geometry>
        <mesh filename="package://kuka_kr210r2700_support/meshes/collision/link_4.stl"/>
      </geometry>
    </collision>
    <inertial>
      <mass value="18.000000"/>
      <inertia ixx="0.000000" ixy="-3.000000" ixz="0.000000" iyy="0.000000" iyz="7.000000" izz="0.000000"/>
    </inertial>
  </link>
  <link name="link_5">
    <visual>
      <origin rpy="0.000000 0.000000 0.000000" xyz="-1.550000 0.000000 -1.784000"/>
      <geometry>
        <mesh filename="package://kuka_kr210r2700_support/meshes/visual/link_5.dae"/>
      </geometry>
      <material name="">
        <color rgba="0 1 0 1"/>
      </material>
    </visual>
    <collision>
      <origin rpy="0 0 0" xyz="-1.550000 0.000000 -1.784000"/>
      <geometry>
        <mesh filename="package://kuka_kr210r2700_support/meshes/collision/link_5.stl"/>
      </geometry>
    </collision>
    <inertial>
      <mass value="23.000000"/>
      <inertia ixx="0.000000" ixy="1.000000" ixz="0.000000" iyy="0.000000" iyz="-2.000000" izz="0.000000"/>
    </inertial>
  </link>
  <link name="link_6">
    <visual>
      <origin rpy="0.000000 0.000000 0.000000" xyz="-1.790000 0.000000 -1.784000"/>
      <geometry>
        <mesh filename="package://kuka_kr210r2700_support/meshes/visual/link_6.dae"/>
      </geometry>
      <material name="">
        <color rgba="0 1 0 1"/>
      </material>
    </visual>
    <collision>
      <origin rpy="0 0 0" xyz="-1.790000 0.000000 -1.784000"/>
      <geometry>
        <mesh filename="package://kuka_kr210r2700_support/meshes/collision/link_6.stl"/>
      </geometry>
    </collision>
    <inertial>
      <mass value="2.000000"/>
      <inertia ixx="0.000000" ixy="10.000000" ixz="1.000000" iyy="0.000000" iyz="-3.000000" izz="0.000000"/>
    </inertial>
  </link>
  <!-- This frame corresponds to the $FLANGE coordinate system in controllers -->
  <link name="tool0"/>
  <joint name="joint_1" type="revolute">
    <origin rpy="0 0.000000 0" xyz="0.000000 0.000000 0.035000"/>
    <parent link="base_link"/>
    <child link="link_1"/>
    <axis xyz="0 0 -1"/>
    <limit effort="100.000000" lower="-3.228859" upper="3.228859" velocity="1.832596"/>
    <dynamics damping="0.0" friction="0.1"/>
  </joint>
  <joint name="joint_2" type="revolute">
    <origin rpy="0 1.570796 0" xyz="0.350000 0.000000 0.675000"/>
    <parent link="link_1"/>
    <child link="link_2"/>
    <axis xyz="0 1 0"/>
    <limit effort="100.000000" lower="-2.443461" upper="-0.087266" velocity="1.867502"/>
    <dynamics damping="0.0" friction="0.1"/>
  </joint>
  <joint name="joint_3" type="revolute">
    <origin rpy="0 -1.570796 0" xyz="0.000000 0.000000 1.150000"/>
    <parent link="link_2"/>
    <child link="link_3"/>
    <axis xyz="0 1 0"/>
    <limit effort="100.000000" lower="-2.094395" upper="2.705260" velocity="1.989675"/>
    <dynamics damping="0.0" friction="0.1"/>
  </joint>
  <joint name="joint_4" type="revolute">
    <origin rpy="0 0.000000 0" xyz="0.000000 0.000000 -0.041000"/>
    <parent link="link_3"/>
    <child link="link_4"/>
    <axis xyz="-1 0 0"/>
    <limit effort="100.000000" lower="-6.108652" upper="6.108652" velocity="2.373648"/>
    <dynamics damping="0.0" friction="0.1"/>
  </joint>
  <joint name="joint_5" type="revolute">
    <origin rpy="0 0.000000 0" xyz="1.200000 0.000000 0.000000"/>
    <parent link="link_4"/>
    <child link="link_5"/>
    <axis xyz="0 1 0"/>
    <limit effort="100.000000" lower="-2.138028" upper="2.138028" velocity="2.251475"/>
    <dynamics damping="0.0" friction="0.1"/>
  </joint>
  <joint name="joint_6" type="revolute">
    <origin rpy="0 0.000000 0" xyz="0.240000 0.000000 0.000000"/>
    <parent link="link_5"/>
    <child link="link_6"/>
    <axis xyz="-1 0 0"/>
    <limit effort="100.000000" lower="-6.108652" upper="6.108652" velocity="3.595378"/>
    <dynamics damping="0.0" friction="0.1"/>
  </joint>
  <joint name="joint_6-tool0" type="fixed">
    <parent link="link_6"/>
    <child link="tool0"/>
    <origin rpy="0 1.570796 0" xyz="0 0 0"/>
  </joint>
  <!-- TRANSMISSION -->
  <transmission name="tran_1">
    <type>transmission_interface/SimpleTransmission</type>
    <joint name="joint_1">
      <hardwareInterface>hardware_interface/PositionJointInterface</hardwareInterface>
    </joint>
    <actuator name="motor_1">
      <hardwareInterface>hardware_interface/PositionJointInterface</hardwareInterface>
      <mechanicalReduction>1</mechanicalReduction>
    </actuator>
  </transmission>
  <transmission name="tran_2">
    <type>transmission_interface/SimpleTransmission</type>
    <joint name="joint_2">
      <hardwareInterface>hardware_interface/PositionJointInterface</hardwareInterface>
    </joint>
    <actuator name="motor_2">
      <hardwareInterface>hardware_interface/PositionJointInterface</hardwareInterface>
      <mechanicalReduction>1</mechanicalReduction>
    </actuator>
  </transmission>
  <transmission name="tran_3">
    <type>transmission_interface/SimpleTransmission</type>
    <joint name="joint_3">
      <hardwareInterface>hardware_interface/PositionJointInterface</hardwareInterface>
    </joint>
    <actuator name="motor_3">
      <hardwareInterface>hardware_interface/PositionJointInterface</hardwareInterface>
      <mechanicalReduction>1</mechanicalReduction>
    </actuator>
  </transmission>
  <transmission name="tran_4">
    <type>transmission_interface/SimpleTransmission</type>
    <joint name="joint_4">
      <hardwareInterface>hardware_interface/PositionJointInterface</hardwareInterface>
    </joint>
    <actuator name="motor_4">
      <hardwareInterface>hardware_interface/PositionJointInterface</hardwareInterface>
      <mechanicalReduction>1</mechanicalReduction>
    </actuator>
  </transmission>
  <transmission name="tran_5">
    <type>transmission_interface/SimpleTransmission</type>
    <joint name="joint_5">
      <hardwareInterface>hardware_interface/PositionJointInterface</hardwareInterface>
    </joint>
    <actuator name="motor_5">
      <hardwareInterface>hardware_interface/PositionJointInterface</hardwareInterface>
      <mechanicalReduction>1</mechanicalReduction>
    </actuator>
  </transmission>
  <transmission name="tran_6">
    <type>transmission_interface/SimpleTransmission</type>
    <joint name="joint_6">
      <hardwareInterface>hardware_interface/PositionJointInterface</hardwareInterface>
    </joint>
    <actuator name="motor_6">
      <hardwareInterface>hardware_interface/PositionJointInterface</hardwareInterface>
      <mechanicalReduction>1</mechanicalReduction>
    </actuator>
  </transmission>
  <gazebo reference="base_link">
    <turnGravityOff>false</turnGravityOff>
    <selfCollide>true</selfCollide>
  </gazebo>
  <gazebo reference="link_1">
    <turnGravityOff>false</turnGravityOff>
    <selfCollide>true</selfCollide>
  </gazebo>
  <gazebo reference="link_2">
    <turnGravityOff>false</turnGravityOff>
    <selfCollide>true</selfCollide>
  </gazebo>
  <gazebo reference="link_3">
    <turnGravityOff>false</turnGravityOff>
    <selfCollide>true</selfCollide>
  </gazebo>
  <gazebo reference="link_4">
    <turnGravityOff>false</turnGravityOff>
    <selfCollide>true</selfCollide>
  </gazebo>
  <gazebo reference="link_5">
    <turnGravityOff>false</turnGravityOff>
    <selfCollide>true</selfCollide>
  </gazebo>
  <gazebo reference="link_6">
    <turnGravityOff>false</turnGravityOff>
    <selfCollide>true</selfCollide>
  </gazebo>
  <link name="world"/>
  <joint name="world_joint" type="fixed">
    <parent link="world"/>
    <child link="base_link"/>
    <origin rpy="0.0 0.0 0.0" xyz="0.0 0.0 0.0"/>
  </joint>
</robot>
