<robot
  name="link_3.sldprt">
  <link
    name="link_3.sldprt">
    <inertial>
      <origin
        xyz="0.58885 -1.7995 0.00076292000000011"
        rpy="0 0 0" />
      <mass
        value="78.793" />
      <inertia
        ixx="1.10169461436684"
        ixy="0.23447241246531"
        ixz="-0.131862980006582"
        iyy="11.4076622102604"
        iyz="-0.00154702818208369"
        izz="11.3070487657333" />
    </inertial>
    <visual>
      <origin
        xyz="0 0 0"
        rpy="1.5707963267949 0 0" />
      <geometry>
        <mesh
          filename="package://link_3.sldprt/meshes/link_3.sldprt.STL" />
      </geometry>
      <material
        name="">
        <color
          rgba="0 1 0 1" />
      </material>
    </visual>
    <collision>
      <origin
        xyz="0 0 0"
        rpy="1.5707963267949 0 0" />
      <geometry>
        <mesh
          filename="package://link_3.sldprt/meshes/link_3.sldprt.STL" />
      </geometry>
    </collision>
  </link>
</robot>